{
  "totalPages": 2,
  "total": 13,
  "start": 11,
  "end": 20,
  "page": 2,
  "pageSize": 10,
  "datas": [
    {
      "col1": "test msg ",
      "col2": "2016-06-24 15:08:26",
      "col3": 1
    },
    {
      "col1": "test msg ",
      "col2": "2016-06-24 15:08:26",
      "col3": 1
    },
    {
      "col1": "test msg ",
      "col2": "2016-06-24 15:08:26",
      "col3": 1
    }
  ]
}